{"failedCount":0,"prefixedPath":"classpath:testingAcademy\/features\/Calling.feature","packageQualifiedName":"testingAcademy.features.Calling","loopIndex":-1,"relativePath":"testingAcademy\/features\/Calling.feature","scenarioResults":[{"sectionIndex":0,"stepResults":[{"result":{"nanos":1238728,"millis":1.238728,"status":"passed"},"step":{"background":true,"line":5,"prefix":"*","index":0,"text":"url 'https:\/\/reqres.in\/api\/'"},"stepLog":"15:45:34.577 karate.env system property was: null \n"},{"result":{"nanos":659754543,"millis":659.754543,"status":"passed"},"step":{"line":9,"prefix":"*","index":0,"text":"def myFeature = callonce read('FeatureCall.feature') {pageNo:'2'}"},"stepLog":"15:45:35.293 << lock released, cached callonce: read('FeatureCall.feature') {pageNo:'2'}\n","callResults":[{"prefixedPath":"classpath:testingAcademy\/features\/FeatureCall.feature","loopIndex":-1,"callDepth":1,"description":"","resultDate":"2022-07-14 03:45:35 pm","durationMillis":585.423979,"callArg":{"pageNo":"2"},"failedCount":0,"packageQualifiedName":"testingAcademy.features.FeatureCall","relativePath":"testingAcademy\/features\/FeatureCall.feature","scenarioResults":[{"sectionIndex":0,"stepResults":[{"result":{"nanos":259287,"millis":0.259287,"status":"passed"},"step":{"background":true,"line":4,"prefix":"*","index":0,"text":"url 'https:\/\/reqres.in\/api\/'"},"stepLog":"15:45:34.695 >> lock acquired, begin callonce: read('FeatureCall.feature') {pageNo:'2'}\n"},{"result":{"nanos":375516,"millis":0.375516,"status":"passed"},"step":{"line":8,"prefix":"Given","index":0,"text":"path \"users\""}},{"result":{"nanos":565272,"millis":0.565272,"status":"passed"},"step":{"line":9,"prefix":"And","index":1,"text":"param page = '#(pageNo)'"}},{"result":{"nanos":584176475,"millis":584.176475,"status":"passed"},"step":{"line":10,"prefix":"When","index":2,"text":"method GET"},"stepLog":"15:45:34.884 request:\n1 > GET https:\/\/reqres.in\/api\/users?page=%23%28pageNo%29\n1 > Host: reqres.in\n1 > Connection: Keep-Alive\n1 > User-Agent: Apache-HttpClient\/4.5.13 (Java\/11.0.15)\n1 > Accept-Encoding: gzip,deflate\n\n\n15:45:35.277 response time in milliseconds: 388\n1 < 200\n1 < Date: Thu, 14 Jul 2022 10:15:35 GMT\n1 < Content-Type: application\/json; charset=utf-8\n1 < Transfer-Encoding: chunked\n1 < Connection: keep-alive\n1 < X-Powered-By: Express\n1 < Access-Control-Allow-Origin: *\n1 < Etag: W\/\"3e4-2RLXvr5wTg9YQ6aH95CkYoFNuO8\"\n1 < Via: 1.1 vegur\n1 < Cache-Control: max-age=14400\n1 < CF-Cache-Status: HIT\n1 < Age: 120\n1 < Expect-CT: max-age=604800, report-uri=\"https:\/\/report-uri.cloudflare.com\/cdn-cgi\/beacon\/expect-ct\"\n1 < Report-To: {\"endpoints\":[{\"url\":\"https:\\\/\\\/a.nel.cloudflare.com\\\/report\\\/v3?s=0%2FCjLvi32VKkeV8itMxwWjq%2BYP8kVaWqA0d5SdRpSIktVoE1U1RpKc0A%2FQSC45jqTeuRMLMcyMl%2F8zR%2BbVbM0VHPhdAMfxRZkqyU84nC%2F9S7l87b8fKfvSUPPw%3D%3D\"}],\"group\":\"cf-nel\",\"max_age\":604800}\n1 < NEL: {\"success_fraction\":0,\"report_to\":\"cf-nel\",\"max_age\":604800}\n1 < Vary: Accept-Encoding\n1 < Server: cloudflare\n1 < CF-RAY: 72a97f7d5e264b1c-HYD\n{\"page\":1,\"per_page\":6,\"total\":12,\"total_pages\":2,\"data\":[{\"id\":1,\"email\":\"george.bluth@reqres.in\",\"first_name\":\"George\",\"last_name\":\"Bluth\",\"avatar\":\"https:\/\/reqres.in\/img\/faces\/1-image.jpg\"},{\"id\":2,\"email\":\"janet.weaver@reqres.in\",\"first_name\":\"Janet\",\"last_name\":\"Weaver\",\"avatar\":\"https:\/\/reqres.in\/img\/faces\/2-image.jpg\"},{\"id\":3,\"email\":\"emma.wong@reqres.in\",\"first_name\":\"Emma\",\"last_name\":\"Wong\",\"avatar\":\"https:\/\/reqres.in\/img\/faces\/3-image.jpg\"},{\"id\":4,\"email\":\"eve.holt@reqres.in\",\"first_name\":\"Eve\",\"last_name\":\"Holt\",\"avatar\":\"https:\/\/reqres.in\/img\/faces\/4-image.jpg\"},{\"id\":5,\"email\":\"charles.morris@reqres.in\",\"first_name\":\"Charles\",\"last_name\":\"Morris\",\"avatar\":\"https:\/\/reqres.in\/img\/faces\/5-image.jpg\"},{\"id\":6,\"email\":\"tracey.ramos@reqres.in\",\"first_name\":\"Tracey\",\"last_name\":\"Ramos\",\"avatar\":\"https:\/\/reqres.in\/img\/faces\/6-image.jpg\"}],\"support\":{\"url\":\"https:\/\/reqres.in\/#support-heading\",\"text\":\"To keep ReqRes free, contributions towards server costs are appreciated!\"}}\n\n"},{"result":{"nanos":47429,"millis":0.047429,"status":"passed"},"step":{"line":11,"prefix":"Then","index":3,"text":"status 200"}}],"executorName":"pool-1-thread-1","line":7,"name":"Get a user","description":"","durationMillis":585.423979,"startTime":1657793734704,"failed":false,"refId":"[1:7]","endTime":1657793735290,"exampleIndex":-1}],"name":"Get the details of user 2","passedCount":1}]}],"line":8,"description":"","durationMillis":660.993271,"failed":false,"tags":["debug"],"executorName":"pool-1-thread-1","name":"Get  user","startTime":1657793734504,"refId":"[1:8]","endTime":1657793735296,"exampleIndex":-1}],"callDepth":0,"name":"Get the details of user 2","description":"","resultDate":"2022-07-14 03:45:35 pm","durationMillis":660.993271,"passedCount":1}